<?xml version="1.0" encoding="UTF-8"?>
<svg width="128px" height="128px" viewBox="0 0 128 128" version="1.1" xmlns="http://www.w3.org/2000/svg" xmlns:xlink="http://www.w3.org/1999/xlink">
    <!-- Generator: Sketch 51.2 (57519) - http://www.bohemiancoding.com/sketch -->
    <title>collapse</title>
    <desc>Created with Sketch.</desc>
    <defs></defs>
    <g id="collapse" stroke="none" stroke-width="1" fill="none" fill-rule="evenodd">
        <path d="M91.3164832,23.1790302 L114.358709,0.136804018 L127.81382,13.5919151 L104.636167,36.7695683 L118.638307,51.0564395 L74.2387052,57.5282197 L80.5815054,12.2257579 L91.3164832,23.1790302 Z M41.3358471,101.617649 L15.0903004,127.863196 L1.63518929,114.408085 L28.0161631,88.0271111 L17.1535034,76.9435605 L61.5531048,70.4717803 L55.2103046,115.774242 L41.3358471,101.617649 Z" id="Rectangle-899-Copy-2" fill="#000000"></path>
    </g>
</svg>